    srand(time(NULL));   // Initialization, should only be called once.
    long tau,d,m,nb_runs,n;
    double plie,eps,delta,val;
    double time_spent = 0.0;
    delta=0.0001;
    tau=10;
    plie=0.1;
    eps=1;

    long ns[]={10,50,500};
    long ds[]={5,50,500};
    long nb_runss[]={10,100,1000,10000};


*************************
Computing estimates
*************************
*************************
nb_runs=10, d=5,m=1 
*************************
Val = 1.400000, Time=0.000010 
Val = 0.700000, Time=0.000003 
Val = 3.700000, Time=0.000002 
Val = 3.200000, Time=0.000002 
Val = 0.700000, Time=0.000002 
Val = 7.800000, Time=0.000003 
Val = 3.900000, Time=0.000003 
Val = 2.100000, Time=0.000003 
Val = 0.000000, Time=0.000002 
Val = 2.300000, Time=0.000003 
Val = 1.400000, Time=0.000002 
*************************
nb_runs=10, d=50,m=10 
*************************
Val = 0.000000, Time=0.000017 
Val = 0.300000, Time=0.000017 
Val = 0.000000, Time=0.000017 
Val = 0.000000, Time=0.000018 
Val = 0.000000, Time=0.000017 
Val = 0.600000, Time=0.000018 
Val = 0.000000, Time=0.000018 
Val = 0.000000, Time=0.000018 
Val = 2.100000, Time=0.000017 
Val = 7.000000, Time=0.000017 
Val = 0.000000, Time=0.000018 
*************************
nb_runs=10, d=500,m=100 
*************************
Val = 0.000000, Time=0.000173 
Val = 0.000000, Time=0.000168 
Val = 0.000000, Time=0.000169 
Val = 0.000000, Time=0.000178 
Val = 0.000000, Time=0.000194 
Val = 0.000000, Time=0.000195 
Val = 0.000000, Time=0.000194 
Val = 0.000000, Time=0.000185 
Val = 0.000000, Time=0.000169 
Val = 0.000000, Time=0.000169 
Val = 0.000000, Time=0.000180 
*************************
nb_runs=100, d=5,m=1 
*************************
Val = 1.860000, Time=0.000033 
Val = 3.370000, Time=0.000019 
Val = 2.330000, Time=0.000019 
Val = 1.600000, Time=0.000018 
Val = 2.750000, Time=0.000019 
Val = 2.950000, Time=0.000019 
Val = 2.890000, Time=0.000019 
Val = 3.010000, Time=0.000019 
Val = 2.490000, Time=0.000018 
Val = 3.210000, Time=0.000018 
Val = 2.730000, Time=0.000018 
*************************
nb_runs=100, d=50,m=10 
*************************
Val = 0.830000, Time=0.000170 
Val = 0.760000, Time=0.000169 
Val = 0.450000, Time=0.000170 
Val = 1.000000, Time=0.000169 
Val = 0.770000, Time=0.000171 
Val = 0.120000, Time=0.000180 
Val = 0.830000, Time=0.000196 
Val = 1.490000, Time=0.000196 
Val = 1.250000, Time=0.000184 
Val = 0.700000, Time=0.000170 
Val = 0.340000, Time=0.000191 
*************************
nb_runs=100, d=500,m=100 
*************************
Val = 0.000000, Time=0.001671 
Val = 0.000000, Time=0.001674 
Val = 0.000000, Time=0.001704 
Val = 0.000000, Time=0.001672 
Val = 0.000000, Time=0.001813 
Val = 0.000000, Time=0.001682 
Val = 0.000000, Time=0.001692 
Val = 0.000000, Time=0.001683 
Val = 0.000000, Time=0.001681 
Val = 0.000000, Time=0.001684 
Val = 0.000000, Time=0.001688 
*************************
nb_runs=1000, d=5,m=1 
*************************
Val = 2.662000, Time=0.000182 
Val = 2.731000, Time=0.000181 
Val = 2.708000, Time=0.000181 
Val = 2.784000, Time=0.000180 
Val = 2.353000, Time=0.000179 
Val = 2.521000, Time=0.000180 
Val = 2.715000, Time=0.000185 
Val = 2.457000, Time=0.000182 
Val = 2.956000, Time=0.000181 
Val = 2.521000, Time=0.000179 
Val = 2.713000, Time=0.000180 
*************************
nb_runs=1000, d=50,m=10 
*************************
Val = 0.901000, Time=0.001694 
Val = 0.803000, Time=0.001695 
Val = 0.982000, Time=0.001696 
Val = 0.505000, Time=0.001692 
Val = 0.830000, Time=0.001692 
Val = 0.962000, Time=0.001694 
Val = 1.262000, Time=0.001698 
Val = 0.987000, Time=0.001693 
Val = 0.776000, Time=0.001694 
Val = 0.975000, Time=0.001693 
Val = 0.918000, Time=0.001696 
*************************
nb_runs=1000, d=500,m=100 
*************************
Val = 0.000000, Time=0.016821 
Val = 0.000000, Time=0.016835 
Val = 0.000000, Time=0.016835 
Val = 0.000000, Time=0.016838 
Val = 0.000000, Time=0.016836 
Val = 0.000000, Time=0.016830 
Val = 0.000000, Time=0.016831 
Val = 0.000000, Time=0.016840 
Val = 0.000000, Time=0.016813 
Val = 0.000000, Time=0.016847 
Val = 0.000000, Time=0.016832 
*************************
nb_runs=10000, d=5,m=1 
*************************
Val = 2.658400, Time=0.001798 
Val = 2.666100, Time=0.001800 
Val = 2.614200, Time=0.001797 
Val = 2.749700, Time=0.001797 
Val = 2.665400, Time=0.001801 
Val = 2.623600, Time=0.001803 
Val = 2.767500, Time=0.001803 
Val = 2.581500, Time=0.001796 
Val = 2.593800, Time=0.001799 
Val = 2.524700, Time=0.001797 
Val = 2.681800, Time=0.001801 
*************************
nb_runs=10000, d=50,m=10 
*************************
Val = 0.841700, Time=0.016928 
Val = 0.850400, Time=0.016923 
Val = 0.908700, Time=0.016919 
Val = 0.817800, Time=0.016918 
Val = 0.867700, Time=0.016926 
Val = 0.860100, Time=0.016908 
Val = 0.866600, Time=0.016923 
Val = 0.900500, Time=0.016931 
Val = 0.788500, Time=0.016917 
Val = 0.820700, Time=0.016919 
Val = 0.898100, Time=0.016919 
*************************
nb_runs=10000, d=500,m=100 
*************************
Val = 0.000000, Time=0.167465 
Val = 0.000000, Time=0.166480 
Val = 0.000000, Time=0.165438 
Val = 0.000000, Time=0.165643 
Val = 0.000000, Time=0.165961 
Val = 0.000000, Time=0.165283 
Val = 0.000000, Time=0.165619 
Val = 0.000000, Time=0.166761 
Val = 0.000000, Time=0.167529 
Val = 0.000000, Time=0.165639 
Val = 0.000000, Time=0.165381 
*************************
Computing deltas
*************************
*************************
nb_runs=10, n=10, d=5 
*************************
Val = 0.342555, Time=0.000037 
Val = 0.177677, Time=0.000062 
Val = 0.175808, Time=0.000049 
Val = 0.298792, Time=0.000047 
Val = 0.210046, Time=0.000049 
Val = 0.107882, Time=0.000061 
Val = 0.170355, Time=0.000047 
Val = 0.116557, Time=0.000049 
Val = 0.277753, Time=0.000034 
Val = 0.113392, Time=0.000034 
Val = 0.212363, Time=0.000033 
*************************
nb_runs=10, n=50, d=25 
*************************
Val = 0.000432, Time=0.000754 
Val = 0.000612, Time=0.000756 
Val = 0.000077, Time=0.000753 
Val = 0.000439, Time=0.000765 
Val = 0.000493, Time=0.000765 
Val = 0.000703, Time=0.000768 
Val = 0.000131, Time=0.000799 
Val = 0.000681, Time=0.000765 
Val = 0.000252, Time=0.000766 
Val = 0.000344, Time=0.000795 
Val = 0.000455, Time=0.000766 
*************************
nb_runs=10, n=500, d=250 
*************************
Val = 0.000000, Time=0.073108 
Val = 0.000000, Time=0.073226 
Val = 0.000000, Time=0.073402 
Val = 0.000000, Time=0.073376 
Val = 0.000000, Time=0.073379 
Val = 0.000000, Time=0.073490 
Val = 0.000000, Time=0.073435 
Val = 0.000000, Time=0.073344 
Val = 0.000000, Time=0.073882 
Val = 0.000000, Time=0.073991 
Val = 0.000000, Time=0.073560 
*************************
nb_runs=100, n=10, d=5 
*************************
Val = 0.239177, Time=0.000334 
Val = 0.161242, Time=0.000363 
Val = 0.218425, Time=0.000334 
Val = 0.237165, Time=0.000333 
Val = 0.236914, Time=0.000332 
Val = 0.253227, Time=0.000333 
Val = 0.191494, Time=0.000329 
Val = 0.200748, Time=0.000330 
Val = 0.197317, Time=0.000327 
Val = 0.209890, Time=0.000330 
Val = 0.202781, Time=0.000331 
*************************
nb_runs=100, n=50, d=25 
*************************
Val = 0.000596, Time=0.007090 
Val = 0.000564, Time=0.007351 
Val = 0.000565, Time=0.007064 
Val = 0.000843, Time=0.007528 
Val = 0.000877, Time=0.007166 
Val = 0.000385, Time=0.007168 
Val = 0.000995, Time=0.007165 
Val = 0.000921, Time=0.007180 
Val = 0.000546, Time=0.007178 
Val = 0.000589, Time=0.007171 
Val = 0.000972, Time=0.007166 
*************************
nb_runs=100, n=500, d=250 
*************************
Val = 0.000000, Time=0.694507 
Val = 0.000000, Time=0.691793 
Val = 0.000000, Time=0.692205 
Val = 0.000000, Time=0.692021 
Val = 0.000000, Time=0.692195 
Val = 0.000000, Time=0.691542 
Val = 0.000000, Time=0.691673 
Val = 0.000000, Time=0.691965 
Val = 0.000000, Time=0.691369 
Val = 0.000000, Time=0.692432 
Val = 0.000000, Time=0.693115 
*************************
nb_runs=1000, n=10, d=5 
*************************
Val = 0.211512, Time=0.003063 
Val = 0.220640, Time=0.003063 
Val = 0.213444, Time=0.003025 
Val = 0.217274, Time=0.003272 
Val = 0.203318, Time=0.003064 
Val = 0.223323, Time=0.003063 
Val = 0.194703, Time=0.003284 
Val = 0.202799, Time=0.003026 
Val = 0.196492, Time=0.003262 
Val = 0.203615, Time=0.003063 
Val = 0.213029, Time=0.003147 
*************************
nb_runs=1000, n=50, d=25 
*************************
Val = 0.000610, Time=0.071581 
Val = 0.000745, Time=0.071003 
Val = 0.000688, Time=0.070742 
Val = 0.000645, Time=0.070876 
Val = 0.000721, Time=0.070864 
Val = 0.000664, Time=0.071006 
Val = 0.000717, Time=0.071258 
Val = 0.000614, Time=0.071084 
Val = 0.000656, Time=0.070724 
Val = 0.000686, Time=0.071156 
Val = 0.000714, Time=0.071272 
*************************
nb_runs=1000, n=500, d=250 
*************************
Val = 0.000000, Time=6.904023 
Val = 0.000000, Time=6.870497 
Val = 0.000000, Time=6.876591 
Val = 0.000000, Time=6.871084 
Val = 0.000000, Time=6.874774 
Val = 0.000000, Time=6.873024 
Val = 0.000000, Time=6.904405 
Val = 0.000000, Time=6.875708 
Val = 0.000000, Time=6.875371 
Val = 0.000000, Time=6.968658 
Val = 0.000000, Time=6.920636 
*************************
nb_runs=10000, n=10, d=5 
*************************
Val = 0.208148, Time=0.030822 
Val = 0.205079, Time=0.030291 
Val = 0.211730, Time=0.030386 
Val = 0.205898, Time=0.030733 
Val = 0.210538, Time=0.030600 
Val = 0.211819, Time=0.030592 
Val = 0.205753, Time=0.030592 
Val = 0.206715, Time=0.030582 
Val = 0.210358, Time=0.030582 
Val = 0.211882, Time=0.030594 
Val = 0.211567, Time=0.030617 
*************************
nb_runs=10000, n=50, d=25 
*************************
Val = 0.000698, Time=0.700213 
Val = 0.000663, Time=0.698624 
Val = 0.000691, Time=0.699290 
Val = 0.000682, Time=0.698170 
Val = 0.000667, Time=0.697667 
Val = 0.000701, Time=0.699449 
Val = 0.000707, Time=0.698316 
Val = 0.000683, Time=0.698580 
Val = 0.000675, Time=0.698810 
Val = 0.000679, Time=0.699824 
Val = 0.000677, Time=0.698829 
*************************
nb_runs=10000, n=500, d=250 
*************************
Val = 0.000000, Time=68.706795 
Val = 0.000000, Time=68.745307 
Val = 0.000000, Time=68.726892 
Val = 0.000000, Time=68.654473 
Val = 0.000000, Time=68.691939 
Val = 0.000000, Time=68.651098 
Val = 0.000000, Time=68.688002 
Val = 0.000000, Time=68.668016 
Val = 0.000000, Time=68.710990 
Val = 0.000000, Time=68.675393 
Val = 0.000000, Time=68.681771 
*************************
Computing epsilons
*************************
*************************
nb_runs=10, n=10, d=5 
*************************
Val = 3.383145, Time=0.000363 
Val = 2.784046, Time=0.000356 
Val = 3.665073, Time=0.000357 
Val = 3.453627, Time=0.000354 
Val = 3.347904, Time=0.000356 
Val = 4.228931, Time=0.000354 
Val = 3.347904, Time=0.000353 
Val = 3.361119, Time=0.000354 
Val = 3.321473, Time=0.000355 
Val = 3.096811, Time=0.000356 
Val = 3.453627, Time=0.000355 
*************************
nb_runs=10, n=50, d=25 
*************************
Val = 2.537358, Time=0.008265 
Val = 2.713564, Time=0.008115 
Val = 2.396394, Time=0.008299 
Val = 1.726813, Time=0.008471 
Val = 2.255430, Time=0.008191 
Val = 2.162922, Time=0.008254 
Val = 2.290671, Time=0.008383 
Val = 2.079224, Time=0.008320 
Val = 2.312697, Time=0.008364 
Val = 1.797296, Time=0.008303 
Val = 1.673952, Time=0.008464 
*************************
nb_runs=10, n=500, d=250 
*************************
Val = 0.017621, Time=0.797723 
Val = 0.017621, Time=0.797107 
Val = 0.008810, Time=0.796175 
Val = 0.004405, Time=0.796608 
Val = 0.035241, Time=0.797318 
Val = 0.017621, Time=0.796637 
Val = 0.017621, Time=0.796858 
Val = 0.004405, Time=0.796050 
Val = 0.004405, Time=0.796258 
Val = 0.008810, Time=0.796389 
Val = 0.004405, Time=0.796799 
*************************
nb_runs=100, n=10, d=5 
*************************
Val = 3.770797, Time=0.003325 
Val = 3.788417, Time=0.003291 
Val = 3.665073, Time=0.003294 
Val = 3.947002, Time=0.003568 
Val = 3.748771, Time=0.003534 
Val = 3.643048, Time=0.003317 
Val = 3.735556, Time=0.003330 
Val = 4.228931, Time=0.003377 
Val = 3.594591, Time=0.003392 
Val = 3.383145, Time=0.003386 
Val = 3.947002, Time=0.003356 
*************************
nb_runs=100, n=50, d=25 
*************************
Val = 2.440445, Time=0.078235 
Val = 2.546169, Time=0.078874 
Val = 2.422825, Time=0.078494 
Val = 2.334722, Time=0.077642 
Val = 2.295076, Time=0.077730 
Val = 2.273050, Time=0.078047 
Val = 2.396394, Time=0.077996 
Val = 2.396394, Time=0.077921 
Val = 2.493307, Time=0.078132 
Val = 2.607841, Time=0.077694 
Val = 2.167327, Time=0.077954 
*************************
nb_runs=100, n=500, d=250 
*************************
Val = 0.004405, Time=7.591704 
Val = 0.004405, Time=7.589047 
Val = 0.004405, Time=7.590739 
Val = 0.008810, Time=7.594869 
Val = 0.004405, Time=7.624238 
Val = 0.004405, Time=7.594815 
Val = 0.004405, Time=7.594059 
Val = 0.004405, Time=7.592775 
Val = 0.008810, Time=7.591602 
Val = 0.004405, Time=7.590168 
Val = 0.004405, Time=7.622755 
*************************
nb_runs=1000, n=10, d=5 
*************************
Val = 4.017484, Time=0.033243 
Val = 4.035105, Time=0.033447 
Val = 3.876520, Time=0.033328 
Val = 3.947002, Time=0.033166 
Val = 4.228931, Time=0.033413 
Val = 4.061536, Time=0.033466 
Val = 4.030700, Time=0.033460 
Val = 4.057130, Time=0.033441 
Val = 4.228931, Time=0.033435 
Val = 3.947002, Time=0.033332 
Val = 4.052725, Time=0.033589 
*************************
nb_runs=1000, n=50, d=25 
*************************
Val = 2.361153, Time=0.771273 
Val = 2.431635, Time=0.767118 
Val = 2.396394, Time=0.766995 
Val = 2.462471, Time=0.767087 
Val = 2.387584, Time=0.768426 
Val = 2.396394, Time=0.768097 
Val = 2.449256, Time=0.768291 
Val = 2.466876, Time=0.768490 
Val = 2.396394, Time=0.767707 
Val = 2.414015, Time=0.767968 
Val = 2.396394, Time=0.767756 
*************************
nb_runs=1000, n=500, d=250 
*************************
Val = 0.004405, Time=75.593828 
Val = 0.004405, Time=75.598538 
Val = 0.004405, Time=75.600247 
Val = 0.004405, Time=75.581805 
Val = 0.004405, Time=75.605603 
Val = 0.004405, Time=75.583046 
Val = 0.004405, Time=75.595849 
Val = 0.004405, Time=75.620377 
Val = 0.004405, Time=75.622934 
Val = 0.004405, Time=75.647344 
Val = 0.004405, Time=75.627155 
*************************
nb_runs=10000, n=10, d=5 
*************************
Val = 4.035105, Time=0.327571 
Val = 4.017484, Time=0.328520 
Val = 4.052725, Time=0.328358 
Val = 4.052725, Time=0.328938 
Val = 4.052725, Time=0.327724 
Val = 4.070346, Time=0.328635 
Val = 4.052725, Time=0.327874 
Val = 4.123208, Time=0.328271 
Val = 4.065941, Time=0.328536 
Val = 4.096777, Time=0.327689 
Val = 4.087966, Time=0.327996 
*************************
nb_runs=10000, n=50, d=25 
*************************
Val = 2.427230, Time=7.671875 
Val = 2.418420, Time=7.674982 
Val = 2.427230, Time=7.668108 
Val = 2.405204, Time=7.671516 
Val = 2.422825, Time=7.683048 
Val = 2.405204, Time=7.683443 
Val = 2.431635, Time=7.669599 
Val = 2.436040, Time=7.675196 
Val = 2.431635, Time=7.665393 
Val = 2.431635, Time=7.671841 
Val = 2.427230, Time=7.673921 
*************************
nb_runs=10000, n=500, d=250 
*************************
Val = 0.004405, Time=755.663601 
Val = 0.004405, Time=755.082605 
Val = 0.004405, Time=755.090112 
Val = 0.004405, Time=755.087067 
Val = 0.004405, Time=755.039931 
Val = 0.004405, Time=755.036376 
Val = 0.004405, Time=755.050315 
Val = 0.004405, Time=755.095413 
Val = 0.004405, Time=755.081481 
Val = 0.004405, Time=755.137324 
Val = 0.004405, Time=755.084796
